Project 1 (DS 6306)
…
The table and plot above shows the number of missing values (NA) in each column. There are only two variables with missing values. ABV is missing 62 values while IBU is missing 1005 values

#Question 4 Compute the median alcohol content and international bitterness unit for each state. Plot a bar chart to compare.

The following filters out all missing data, then graphs the median ABV and IBU per state in a bar plot in order of increasing value.

#Median alcohol content (ABV)
##We will first remove the NA's from the ABV
ABV_State = na.omit("ABV")
##Calculate the Median ABV
ABV_State = BreweriesandBeers %>% group_by(Brewery_State) %>% summarise(median=median(ABV,na.rm=TRUE))
ABV_State

## # A tibble: 51 x 2
##    Brewery_State median
##  * <chr>          <dbl>
##  1 " AK"         0.056 
##  2 " AL"         0.06  
##  3 " AR"         0.052 
##  4 " AZ"         0.055 
##  5 " CA"         0.058 
##  6 " CO"         0.0605
##  7 " CT"         0.06  
##  8 " DC"         0.0625
##  9 " DE"         0.055 
## 10 " FL"         0.057 
## # … with 41 more rows
…
#international bitterness unit (IBU)
##We will first remove the NA's from the IBU
IBU_State = na.omit("IBU")
##Calculate the Median IBU
IBU_State = BreweriesandBeers %>% group_by(Brewery_State) %>% summarise(median=median(IBU,na.rm=TRUE))
IBU_State

## # A tibble: 51 x 2
##    Brewery_State median
##  * <chr>          <dbl>
##  1 " AK"           46  
##  2 " AL"           43  
##  3 " AR"           39  
##  4 " AZ"           20.5
##  5 " CA"           42  
##  6 " CO"           40  
##  7 " CT"           29  
##  8 " DC"           47.5
##  9 " DE"           52  
## 10 " FL"           55  
## # … with 41 more rows
…
